CPSOSK 3.2225052370779577 2.5799275570298765 18.24029125373859 2.579534567557755 2.49540116561202 3.2223819162600376 2.0133152362558 3.404158349362288 1.6462236331031161 3.2225052370779577 3.5187283423773263 3.7343678229187245 3.7856706769670905 3.7343120013872633 4.775013083266483 2.579927557029873 2.6601683733933013 19.442396940288408 2.0133152362557962 2.9580866733635998 3.2223819162600305 19.384040676892784 3.1590859078015296 2.7386086225727024 2.6601683733932977 3.2844020275623618 6.056014859469251 2.4083133051222956 2.88719599800335 4.340971448557024 
CPSOHK 3.9818568393459057 3.7340682809379584 2.814099738693319 3.518308529438063 3.2845134697416474 4.662345358648398 2.9576995071429555 3.1588120192032823 2.0133152362557962 5.1251407258253145 2.6608395113744163 4.424326665466353 3.8858031687381893 3.5186512313950655 3.2223819162600376 5.871831277027734 2.88719599800335 2.9582796094515342 4.340971448557024 4.076114762881865 5.3506078396851 3.344508422520701 5.59149689931888 2.4958677726998713 3.3450670801247395 4.340947322091193 3.0937412517779674 2.738896826811786 2.738608622572699 5.125296194237912 
CCPSO 1.3683604889050547 1.1071259304585053 1.364515291924342 2.269800557621164 0.10331175926584324 0.09178221886554683 2.2257025152934635 1.1611862161398894 0.09443917078036579 3.4496509424896584 0.07689247428833257 0.25234546279945436 2.4694892773163493 0.35247911136292176 1.4753492073885401 1.5438571417586364 0.10268802488976236 1.0058331275399373 1.4426052326406738 0.19938883385622264 0.038683298837199676 0.09754042149511877 0.09432307391664851 0.3790093733403208 0.46796379938454225 0.2785589021912327 1.9926995863123733 0.7567948335892969 2.5172891241223323 0.08014543266564589 
DCPSO 2.0133152362558104 2.8140997386933475 4.505629130868691 2.316848791847623 3.6285828721700963 3.8360125805469107 2.8143499807721004 2.2209697699354476 4.166994627577328 4.211430061722265 3.093741251777996 2.3168487918476086 3.026937373539479 2.8869764601288748 2.013315236255821 2.3168487918476086 2.579927557029887 3.222381916260048 2.3161618137940008 2.579534567557783 3.3449659788013375 3.4620558558180616 2.316848791847637 3.4619716953715742 2.8140997386933333 4.2110012555933665 2.814099738693337 2.886976460128889 2.1200533615989703 2.1200533615989703 
MCPSO 3.0449762762121293 11.658113240359642 15.41034589616297 15.8221689734712 15.591572675454778 8.615433856732114 18.050626478212255 14.849530222843528 18.969307001018397 17.914500943151054 7.143100184772056 10.694527261079342 14.945673335307047 9.911605780653233 7.854698111059008 4.5057927192825105 14.045865066694816 15.32613608667739 17.611891144478488 9.347677769531034 8.026159289322775 14.514990289170155 9.795688847091014 5.180086491154121 16.81177544869835 18.183966227687623 16.092581108872714 16.89920352011713 16.124882298791164 15.085036411858898 
