CPSOSK -17495.909114512822 -18796.05285723247 -16568.69868342763 -17518.637791269983 -16809.110212180116 -17395.78547197045 -18210.205632765734 -17524.08553589072 -18864.37102435488 -17658.699989475434 -17049.416193161713 -17103.242880189453 -17933.410012401946 -15938.81117476727 -18468.861383617914 -18847.402571030532 -14762.418061982204 -17213.48107796775 -16655.053546990588 -17090.856843361184 -16859.354691930766 -18801.67810718827 -18859.501993586488 -17857.885453975916 -16086.174916970349 -18077.208371628964 -17912.87984389794 -16984.84402586749 -16649.683990141762 -16221.784668817587 
CPSOHK -19357.771416921376 -17722.21146183125 -16484.929943998755 -17007.356352329727 -16008.21835703263 -19487.566438016198 -16889.37642061348 -16234.248720134434 -16636.442344517058 -19639.415084752884 -18777.511457931414 -17971.568225055584 -18383.946930528877 -17385.126383123796 -16161.12215327532 -17665.355771565577 -16419.855479762926 -17736.674220980996 -17434.08238144379 -18813.3383318012 -16745.87071064762 -18119.386946788272 -18091.882145221512 -15962.651605093259 -17096.85608066249 -15389.261836803855 -16033.607993527268 -17596.802955850904 -16904.193813280224 -18270.424310575912 
CCPSO -21212.21892188277 -21448.299269277475 -21125.829080892927 -20958.332473366198 -22964.10777150182 -21793.0045115693 -20118.141400955406 -21496.60684795611 -20814.44913771886 -21503.74200283746 -21857.417197591432 -21143.31745962901 -21975.286747820424 -21101.870545704354 -21732.281845274174 -20761.607375029158 -19101.287401612957 -20368.870289883194 -21519.775405851993 -21062.68344307177 -20835.267217652174 -21180.611706962343 -21398.011863759137 -20355.2415054029 -20891.39633441486 -20445.98669394854 -22190.160464308363 -21557.8922369596 -21363.621401518056 -20797.613791247553 
DCPSO -22473.121878956383 -21938.335235098697 -21953.67485569184 -20505.454871373942 -21765.31955690149 -20436.916113638865 -22379.91983135472 -20229.71101209788 -20069.25977470884 -22594.36270221722 -22686.40376076493 -21826.755054185473 -21573.452750149285 -22713.89232955887 -22034.60726997787 -22323.847917090876 -21964.54022480581 -21420.239207256647 -23003.307909083065 -22092.78659522091 -21696.830348628464 -22155.613673709315 -21404.508650191412 -21049.408677204876 -22269.677851643046 -20956.943821858345 -21883.56162502583 -21394.127708181997 -20595.380795308938 -22920.659330031653 
MCPSO -21981.202870835892 -19899.090666654054 -21182.857378270037 -20711.523775216065 -20695.731552801404 -21579.855098115975 -20727.48413086935 -22109.302925678112 -20829.851233959234 -20805.220272436305 -20636.967492225904 -21797.547312444825 -20907.83412450487 -20518.556892844488 -21974.094012417878 -21975.87767338738 -21002.860594360664 -20172.56355290207 -21024.621680192417 -21378.538640597846 -21764.490568612735 -21709.689657653762 -21467.034026223544 -20584.92699122725 -21705.889314374763 -21992.503419579647 -20061.18632051678 -21859.34565165816 -20706.26343120632 -23842.8535597567 
