CPSOSK 1.598596147973381E-11 8.928183008097812E-10 5000.000000000078 5000.000000000108 5000.0000000000555 5000.000000000171 5000.000000000047 9.156855414975379E-11 3.415697879309546E-10 2.6860939508868608E-11 6.330328944918639E-11 1.2537093538934862E-10 5000.000000000073 5000.00000000006 5000.000000000321 11666.666666666704 5000.000000000079 11666.666666666846 5000.000000000133 5000.000000000069 5000.000000000135 4.700977258904557E-9 1.3219045795392723E-10 1.0324289980852121E-10 5000.000000000162 1.3440741545700798E-9 5000.000000000198 4.476841069321989E-11 20000.0000000003 9.378206533811545E-11 
CPSOHK 9.121744486775378E-4 1.0146408553612307E-5 4.645871649239645E-5 4.117730058159288E-4 11666.666667789244 5000.000001729338 4.63804772294243E-5 5000.0000085573065 10000.000083003644 3.9002068825956087E-4 5000.00026351283 5.848723085378809E-4 5000.000004338998 2.515075405247378E-5 6.270183097684417E-4 2.0233711276556574E-4 10000.000072637278 6.417950469602122E-5 5.3095810950040985E-5 10000.000018312627 3.593833484607411E-5 1.4265476706432038E-4 5000.000061883648 5000.000046958479 10000.000001114202 15000.00000024423 15000.000000166652 16666.66666680971 5000.000041533108 5000.000549712218 
CCPSO 528.0884959428437 0.13204756237930232 0.004846557270847542 165.44086959787086 23.46643214418363 43.51752625147582 54.81948517036527 0.0031179188732756765 34.61228382054521 4.840298549790792E-4 45.96781007233202 15.02970222702692 434.30077134752025 0.23572939551544814 10.998927457555476 230.0685958747652 20.066330516623964 36.55660994527571 7.318596962770555 39.625852080813516 1.294215313554098E-4 391.7374961806575 51.40209538557219 576.9147826665093 113.70252409814964 145.14674556977354 353.454770618898 5.73322912057746 1.8522181983588535 212.185978084258 
DCPSO 0.009676383059061551 0.00944395761943818 0.0024991003326153304 0.0020485471077144653 0.03051196313911766 0.0018638991996118136 0.004659018425232739 5.657153492892703E-4 0.0017963677710332345 0.0012031398007354259 0.002628530277301357 0.003208782892770495 3.392029454905039E-4 0.004417925442565529 0.0023779041277599 0.0019932190393572476 2.475575056905782E-4 0.005065996747809175 0.004629013727414222 0.002379303398184339 1.3823582275008335E-4 0.001444800890152111 0.0023990406232248657 9.780109861210833E-4 4.7077555649798777E-4 4.2008652995312854E-4 4.643418757439395E-4 0.001241149362366937 0.0034086505978373613 0.004858038816741494 
MCPSO 0.08120033013178138 0.045360479903190865 0.2008219580854159 0.026813000066361913 0.017143468218950794 0.1056287034822076 3.2945274800908244 0.05633856498129679 0.0853884932189844 0.036763631952230466 1.124840761942705 0.09972522976388191 0.04817885706846636 0.1252305456245508 5.323529639384769 0.46454670099705303 0.028575625561472997 0.13499227662434787 1.1990704119061066 0.12538951301522497 897.4677702768023 0.019719165942174863 0.9097692987886473 3.4510633229963052 0.05801455063415082 0.09972087964676371 1.338020575152529 16.823829410700395 0.00696132404331561 0.024092012534898455 
