CPSOSK 4258.022094062163 4405.508081639486 4898.0564873043595 4034.0362594055587 4062.167361754563 4684.938468847858 4446.2797425558365 4011.385623341324 4522.23731745558 4082.230204083535 
CPSOHK 5006.425364093362 4296.429998546813 4398.672259297073 4612.228668125604 4609.1164314445605 4386.548798267767 4404.938733856733 4428.361989914169 4362.06412620527 4688.717273752954 
CCPSO 297.8095249297812 118.8274063458045 152.18297119626084 361.4222180176447 325.2540731903294 213.22556134428396 282.79190634033336 53.45004760816783 148.75818132166637 104.37335658850978 
DCPSO 3785.570962678124 3847.8560778816072 4110.602405643661 3686.3694557045596 3880.233651692777 3741.7240682639035 3861.331233320504 3728.849672645633 4103.632463076005 3717.5749893726556 
MCPSO 4041.0661532291533 4179.796924495925 4327.008729762687 4201.562907807315 4466.469794000309 3964.1977424703045 4165.097972434846 4331.424047864108 4348.698866201671 4436.299591169079 
